…
lm_fit$fit %>% 
    glance()

## # A tibble: 1 x 11
##   r.squared adj.r.squared  sigma statistic p.value    df  logLik    AIC    BIC      deviance df.residual
##       <dbl>         <dbl>  <dbl>     <dbl>   <dbl> <int>   <dbl>  <dbl>  <dbl>         <dbl>       <int>
## 1     0.944         0.936 20307.      117.       0   295 -26418. 53428. 55132. 844933941149.        2049

lm_fit %>%
  tidy()

## # A tibble: 295 x 5
##    term             estimate std.error statistic  p.value
##    <chr>               <dbl>     <dbl>     <dbl>    <dbl>
##  1 (Intercept)    -1077454.     76249.   -14.1   2.48e-43
##  2 Lot_Frontage         98.6      545.     0.181 8.56e- 1
##  3 Lot_Area           5194.       683.     7.60  4.44e-14
##  4 Year_Built        11581.      1763.     6.57  6.37e-11
##  5 Year_Remod_Add     1326.       806.     1.65  1.00e- 1
##  6 Mas_Vnr_Area       3559.       745.     4.78  1.88e- 6
##  7 BsmtFin_SF_1      16044.     14987.     1.07  2.85e- 1
##  8 BsmtFin_SF_2      -1038.       867.    -1.20  2.31e- 1
##  9 Bsmt_Unf_SF       -9909.       927.   -10.7   5.37e-26
## 10 Total_Bsmt_SF     18527.      1471.    12.6   4.26e-35
## # ... with 285 more rows
…
