…
## [1] "03-24-2020"

# The example dataset
example.data <- read_csv(paste(covid.dailies.loc, paste0(example.input,'.csv'), sep = "/"))

And from here we could imagine example.input as being assigned reactively, and so we’ve created a way of managing the data from Github (or any other public URL, really) in real-time.

example.data %>% 
  group_by(`Country_Region`) %>% 
  summarize(Total = sum(Confirmed)) %>%
  arrange(desc(Total))

## # A tibble: 169 x 2
##    Country_Region Total
##    <chr>          <dbl>
##  1 China          81591
##  2 Italy          69176
##  3 US             53740
##  4 Spain          39885
##  5 Germany        32986
##  6 Iran           24811
##  7 France         22622
##  8 Switzerland     9877
##  9 Korea, South    9037
## 10 United Kingdom  8164
## # ... with 159 more rows
…
