…
Starting the actual trend analysis, I began by looking at Campaign Recall counts over time. I had to decide on the level of ‘detail’ the time series plot would take in terms of aggregating individual entries. I ultimately opted to produce a plot aggregated by Day, Month, and Year as they each offered some insight into what both the individual and market-wide trend was looking like.

A quick look at what the transformation appears as:

recalls_dlrtr %>%
  group_by(DATEA_Y_FLOOR = floor_date(DATEA,"year"), MAKETXT) %>%
  count()

## # A tibble: 624 x 3
## # Groups:   DATEA_Y_FLOOR, MAKETXT [624]
##    DATEA_Y_FLOOR MAKETXT        n
##    <date>        <fct>      <int>
##  1 1979-01-01    HONDA         79
##  2 1979-01-01    VOLKSWAGEN   112
##  3 1979-01-01    VOLVO        135
##  4 1979-01-01    SUBARU        24
##  5 1979-01-01    NISSAN        56
##  6 1979-01-01    TOYOTA        47
##  7 1979-01-01    BMW           75
##  8 1979-01-01    MAZDA          9
##  9 1979-01-01    LAND ROVER     3
## 10 1979-01-01    AUDI          19
## # ... with 614 more rows
…
The next step in the exercise was to look at the number of possibly affected parts.

A quick overview of the transformed data set used to do this analysis:

recalls_dlrtr %>%
  group_by(DATEA_M_FLOOR = floor_date(DATEA, "month"), MAKETXT) %>%
  summarise(TOPOTAFF = sum(POTAFF))

## # A tibble: 2,292 x 3
## # Groups:   DATEA_M_FLOOR [457]
##    DATEA_M_FLOOR MAKETXT    TOPOTAFF
##    <date>        <fct>         <dbl>
##  1 1979-10-01    HONDA      51190716
##  2 1979-10-01    VOLKSWAGEN 87022712
##  3 1979-10-01    VOLVO       4485325
##  4 1979-10-01    SUBARU       921164
##  5 1979-10-01    NISSAN      2367410
##  6 1979-10-01    TOYOTA      3931489
##  7 1979-10-01    BMW          796557
##  8 1979-10-01    MAZDA         39349
##  9 1979-10-01    LAND ROVER     1499
## 10 1979-10-01    AUDI         344440
## # ... with 2,282 more rows
…
