…
A quick overview of the extreme AUQ values, both positive and negative:

kroger %>%
  arrange(desc(`Adjustment Unit Quantity`))

## # A tibble: 892,955 x 5
##    `Store #` `Commodity Name` `Base GTIN Numb~ `Base GTIN Desc~ `Adjustment Uni~
##    <chr>     <chr>            <chr>            <chr>                       <dbl>
##  1 00907     202 CANDY - PAC~ 0003400000475    REESES LOVR EGGS            11268
##  2 00934     202 CANDY - PAC~ 0001206594021    PAPAS MILK CHOC~             6826
##  3 00921     202 CANDY - PAC~ 0003400000475    REESES LOVR EGGS             4826
##  4 00935     202 CANDY - PAC~ 0003400000475    REESES LOVR EGGS             4320
##  5 00935     202 CANDY - PAC~ 0001206594010    PAPAS OPERA CRE~             3730
##  6 00929     842 GAMES        0019141855264    JUSTCE LG 3-W S~             2648
##  7 00431     202 CANDY - PAC~ 0001206594012    PAPAS CHERRY CR~             2588
##  8 00907     606 TROPICAL FR~ 0000000004046    AVOCADOS HASS S~             2565
##  9 00412     202 CANDY - PAC~ 0003400000475    REESES LOVR EGGS             2487
## 10 00431     202 CANDY - PAC~ 0001206594011    PAPAS FRENCH CR~             2268
## # ... with 892,945 more rows

kroger %>%
  arrange(`Adjustment Unit Quantity`)

## # A tibble: 892,955 x 5
##    `Store #` `Commodity Name` `Base GTIN Numb~ `Base GTIN Desc~ `Adjustment Uni~
##    <chr>     <chr>            <chr>            <chr>                       <dbl>
##  1 00420     973 BASIC GIRL   0088796136848    BRB CAREER SPOR~           -26384
##  2 00907     790 KITCHEN      0004759656176    BRD BRUSSELS MO~           -20002
##  3 00907     121 CIGARETTES   0001100000494    PYRMD GOLD KG M~           -17821
##  4 00447     923 BABY BASICS  0088530656052    3P FOL TG TRNNG~            -8847
##  5 00405     154 BROTH/DRY S~ 0002970001103    IDHN SH LOADED ~            -8513
##  6 00335     013 SPICES & EX~ 0001111090341    PRSL FINE SEA S~            -7884
##  7 00418     084 DRY NOODLES~ 0001111089916    HEMIS LUMACONI              -7884
##  8 00705     134 CROUTONS/BR~ 0007054000000    ANGO ITAL STYL ~            -7551
##  9 00421     114 PAPER HOUSE~ 0001111089218    KRO HMS COLOR T~            -7419
## 10 00420     098 EUROPEAN FO~ 0073449287005    LYLES GOLDEN SY~            -7293
## # ... with 892,945 more rows
…
Another observation worth noting is three of these four extreme adjustments all came from Store #00907.

Taking a broad look at average adjustment per commodity category we can see Tomatoes and Melons are in excess demand overall, whereas Tropical Fruit are at a lower demand overall.

# Sorting Average AUG per commodity from increasing to decreasing
kroger %>% group_by(`Commodity Name`) %>%
  summarise(avgAUQ = mean(`Adjustment Unit Quantity`)) %>% arrange(avgAUQ)

## `summarise()` ungrouping output (override with `.groups` argument)

## # A tibble: 542 x 2
##    `Commodity Name`             avgAUQ
##    <chr>                         <dbl>
##  1 617 TOMATOES                -1805  
##  2 607 MELONS                  -1112  
##  3 109 WATER CONDITIONING SALT  -103. 
##  4 923 BABY BASICS               -53.9
##  5 435 SEAFOOD - SHRIMP          -46.5
##  6 433 SEAFOOD - CRAB            -43.5
##  7 817 FERTILIZERS               -27.7
##  8 973 BASIC GIRL                -27.2
##  9 098 EUROPEAN FOODS            -26.3
## 10 885 POWER TOOL/ACCSSR         -20.4
## # ... with 532 more rows

# Sorting Average AUG per commodity from decreasing to increasing
kroger %>% group_by(`Commodity Name`) %>%
  summarise(avgAUQ = mean(`Adjustment Unit Quantity`)) %>% arrange(desc(avgAUQ))

## `summarise()` ungrouping output (override with `.groups` argument)

## # A tibble: 542 x 2
##    `Commodity Name`             avgAUQ
##    <chr>                         <dbl>
##  1 606 TROPICAL FRUIT           824   
##  2 236 BOOKSTORE                 69.5 
##  3 627 NF BULK FOOD              33.3 
##  4 804 SUNGLASSES                23.8 
##  5 751 FIREWOOD/FIRESTARTS       18.3 
##  6 XXX NO COMMODITY DESCRIPTION  18   
##  7 836 BACKPACKS/DUFFELS/TOTES   16.3 
##  8 826 SOFT DECOR                 7.17
##  9 841 CHRISTMAS                  6.82
## 10 830 SEASONAL ACCESSORIES       5.63
## # ... with 532 more rows
…
